{
  "project_info": {
    "project_number": "727424983033",
    "firebase_url": "https://gub-portal.firebaseio.com",
    "project_id": "gub-portal",
    "storage_bucket": "gub-portal.appspot.com"
  },
  "client": [
    {
      "client_info": {
        "mobilesdk_app_id": "1:727424983033:android:9ecfc5b45a855db8",
        "android_client_info": {
          "package_name": "com.muttasimfuad.greenfo"
        }
      },
      "oauth_client": [
        {
          "client_id": "727424983033-a148626nasqgs4eckt81k1qe20k2qd76.apps.googleusercontent.com",
          "client_type": 1,
          "android_info": {
            "package_name": "com.muttasimfuad.greenfo",
            "certificate_hash": "11ad8c2e4b8d8385874dbdc929a9b99f9e4fb148"
          }
        },
        {
          "client_id": "727424983033-239k09ojjlgumulu1k8a3dr4cqm9piaq.apps.googleusercontent.com",
          "client_type": 1,
          "android_info": {
            "package_name": "com.muttasimfuad.greenfo",
            "certificate_hash": "9f95cc3e89f76688e50f31b6098bb35892f120d6"
          }
        },
        {
          "client_id": "727424983033-t6k54vidli7k2n5685d0579ddno6p6aa.apps.googleusercontent.com",
          "client_type": 3
        }
      ],
      "api_key": [
        {
          "current_key": "AIzaSyCIt1hqXAZMDZW6cH6-J8BOZjpKbaXe3OY"
        }
      ],
      "services": {
        "analytics_service": {
          "status": 1
        },
        "appinvite_service": {
          "status": 2,
          "other_platform_oauth_client": [
            {
              "client_id": "727424983033-t6k54vidli7k2n5685d0579ddno6p6aa.apps.googleusercontent.com",
              "client_type": 3
            }
          ]
        },
        "ads_service": {
          "status": 2
        }
      }
    }
  ],
  "configuration_version": "1"
}